…
    ## ✔ ggplot2 3.0.0     ✔ purrr   0.2.5
    ## ✔ tibble  1.4.2     ✔ dplyr   0.7.6
    ## ✔ tidyr   0.8.3     ✔ stringr 1.3.1
    ## ✔ readr   1.1.1     ✔ forcats 0.3.0

    ## ── Conflicts ──────────────────────────────────────────────────── tidyverse_conflicts() ──
    ## ✖ dplyr::filter() masks stats::filter()
    ## ✖ dplyr::lag()    masks stats::lag()

``` r
mpg
```

    ## # A tibble: 234 x 11
    ##    manufacturer model displ  year   cyl trans drv     cty   hwy fl    cla…
    ##    <chr>        <chr> <dbl> <int> <int> <chr> <chr> <int> <int> <chr> <ch>
    ##  1 audi         a4      1.8  1999     4 auto… f        18    29 p     com…
    ##  2 audi         a4      1.8  1999     4 manu… f        21    29 p     com…
    ##  3 audi         a4      2    2008     4 manu… f        20    31 p     com…
    ##  4 audi         a4      2    2008     4 auto… f        21    30 p     com…
    ##  5 audi         a4      2.8  1999     6 auto… f        16    26 p     com…
    ##  6 audi         a4      2.8  1999     6 manu… f        18    26 p     com…
    ##  7 audi         a4      3.1  2008     6 auto… f        18    27 p     com…
    ##  8 audi         a4 q…   1.8  1999     4 manu… 4        18    26 p     com…
    ##  9 audi         a4 q…   1.8  1999     4 auto… 4        16    25 p     com…
    ## 10 audi         a4 q…   2    2008     4 manu… 4        20    28 p     com…
    ## # ... with 224 more rows
…
